{
  "id": 999,
  "name": "cos-caraibes",
  "version": "0.1.0",
  "env": "prod",
  "eck": "x1",
  "inactivityTimeout": 14400000,
  "region": {
    "name": "Caraibes",
    "urlGeoip": "https://x1-tools.canal-overseas.com/geoip/",
    "code": "50",
    "timeZone": -4
  },
  "live": {
    "licenseUrl": "https://secure-stb.canal-plus.com/WebPortal/X1COS/DRM/api/Licence"
  },
  "vod": {
    "restartLogoUrl": "https://static.canal-overseas.com/x1/img/logo-8h-programmes.svg",  
    "catalogsUrl": "https://hodor.canalplus.pro/api/v1/mycanal/authenticate.json/x1/1.1?appLocation={appLocation}&offerZone={offerZone}&isAuthenticated={isAuthenticated}&micros={micros}&macros={macros}",
    "hapi": {
      "url": "https://secure-mycanal-player-pc-ws3.canal-plus.com",
      "headers": {
        "operator": "x1",
        "service": "mycanal",
        "apiVersion": 2.1,
        "profileId": 0,
        "dismodes": "catchup,live,svod,tvod,posttvod"
      },
      "metaInfosConso": {
        "distTechnology": "stream",
        "drmType": "DRM Widevine"
      }
    }
  },
  "apps": [
    {
      "url": "http://x1-tools.canal-overseas.com/apps/radioCOS/?zone=50",
      "imgSrc": "https://static.canal-overseas.com/x1/img/logo-radioline.png",
      "name": "RadioLine"
    },
    {
      "url": "http://france24.tv.dotscreen.com/canal_plus/?languages=FR,EN,ES,AR",
      "imgSrc": "https://static.canal-overseas.com/x1/img/fr24.png",
      "name": "France24"
    }
  ],
  "guide": {
    "url": "https://service.canal-overseas.com/ott-frontend/vector/57001/channels",
    "apiTimeZoneOffset": -6
  },
  "channels": {
    "programsPollInterval": 300000,
    "pdsUrl": "http://static.canal-overseas.com/x1/testconf/pds/Channels_50_TEST.json",
    "vectors": [
      53001,
      57001
    ],
    "defaultChannelId": 50012,
    "programsUrl": "https://secure-webtv-static.canal-plus.com/metadata/cpant/all/v2.2/globalchannels.json"
  },
  "channel": {
    "programDetailUrl": "https://service.canal-overseas.com/ott-frontend/vector/57001/event/{DiffId}",
    "programsUrl": "https://secure-webtv-static.canal-plus.com/metadata/cpant/canal/v2.2/chid{EpgId}.json",
    "programsPollInterval": 300000
  },
  "program": {
    "detailUrl": "https://service.canal-overseas.com/ott-frontend/vector/57001/event/{DiffId}",
    "imgUrl": "http://service.canal-overseas.com/image-api/v1/diffusion/{difId}"
  },
  "parental": {
    "url": "https://secure-stb.canal-plus.com/WebPortal/ottlivetv/api/v4/zones/ANT/devices/24/apps/1/jobs/{method}",
    "csaHours": [
      0,
      6
    ],
    "scriptInfoSet": "setparentbymsd",
    "scriptInfoCheck": "checkparentbymsd",
    "scriptInfoGet": "getparentbymsd"
  },
  "user": {
    "tviPassUrl": "https://secure-stb.canal-plus.com/WebPortal/TviPass/api/version/2/vectors/INTERNET/medias/PC/portals/1/login",
    "tviPassInterval": 14400000
  },
  "tracking": {
    "logmaticKey": "UcQ4HMI9SdapxHij1drH0Q",
    "googleAnalyticsId": "UA-92524381-3",
    "playerPingLog": {
      "url": "https://secure-stb.canal-plus.com/WebPortal/ppl/api/v3/zones/50/devices/24/apps/50/jobs/dispatch",
      "startInterval": [
        20000,
        40000
      ],
      "flushInterval": 120000
    }
  },
  "images": {
    "resizer": [
      {
        "service": "repictur",
        "template": "https://repictur.canal-overseas.com/?u={srcUrl}{width}{height}&f={format}{quality}&c=true&a=dc08dfc0-8232-4cab-bc7a-971d3a42dbc2&fi=anIdentifier&ci=JavaScript&cav=1",
        "defaultWidth": 400,
        "defaultHeight": 225,
        "defaultFormat": "JPEG"
      },
      {
        "service": "thumbor",
        "template": "https://thumb.canalplus.pro/http/unsafe/{width}x{height}/{srcUrlWithoutSchema}",
        "defaultWidth": 400,
        "defaultHeight": 225
      }
    ],
    "resizeMethod": "thumbor"
  },
  "logs": {
    "datadogApiKey": "108c0d54f3906049b941e62af76b91e6",
    "pingLogOptions": {
      "url": "https://secure-stb.canal-plus.com/WebPortal/PPL/api/v3/zones/cpant/devices/24/apps/50/jobs/dispatch",
      "startInterval": [
        20000,
        40000
      ],
      "flushInterval": 120000
    }
  },
  "player": {
    "maxVideoBitrate": 0, 
    "maxAudioBitrate": 0
  }
}